%TF.GenerationSoftware,Altium Limited,Altium Designer,19.0.12 (326)*%
G04 Layer_Color=16711935*
%FSLAX43Y43*%
%MOMM*%
%TF.FileFunction,Soldermask,Bot*%
%TF.Part,Single*%
G01*
G75*
%TA.AperFunction,SMDPad,CuDef*%
%ADD59R,1.603X1.403*%
%ADD60R,3.403X3.403*%
%ADD61R,0.503X1.103*%
%ADD62R,1.103X0.503*%
%ADD63R,1.403X1.603*%
%ADD64R,0.553X1.803*%
%ADD65O,0.553X1.803*%
%ADD66R,0.903X1.203*%
%ADD67R,0.803X0.703*%
%ADD68R,1.703X4.203*%
%ADD69R,1.003X0.543*%
%ADD70R,1.913X2.493*%
%ADD71R,0.703X0.803*%
%ADD72R,1.628X2.703*%
%ADD73R,0.603X1.953*%
%ADD74R,1.553X0.853*%
%ADD75R,0.753X1.653*%
%ADD76R,0.753X1.653*%
%ADD77R,1.403X0.503*%
%ADD78R,0.503X1.403*%
%ADD79R,0.853X1.553*%
%ADD80R,2.303X1.503*%
%ADD81R,1.603X0.603*%
%ADD82O,1.603X0.603*%
%TA.AperFunction,Conductor*%
%ADD83R,2.203X1.663*%
%ADD84R,2.203X1.663*%
%TA.AperFunction,ComponentPad*%
%ADD85C,1.981*%
%ADD86O,3.203X2.503*%
%ADD87O,3.203X2.503*%
G04:AMPARAMS|DCode=88|XSize=1.503mm|YSize=2.003mm|CornerRadius=0.752mm|HoleSize=0mm|Usage=FLASHONLY|Rotation=0.000|XOffset=0mm|YOffset=0mm|HoleType=Round|Shape=RoundedRectangle|*
%AMROUNDEDRECTD88*
21,1,1.503,0.500,0,0,0.0*
21,1,0.000,2.003,0,0,0.0*
1,1,1.503,0.000,-0.250*
1,1,1.503,0.000,-0.250*
1,1,1.503,0.000,0.250*
1,1,1.503,0.000,0.250*
%
%ADD88ROUNDEDRECTD88*%
G04:AMPARAMS|DCode=89|XSize=1.253mm|YSize=1.663mm|CornerRadius=0.627mm|HoleSize=0mm|Usage=FLASHONLY|Rotation=0.000|XOffset=0mm|YOffset=0mm|HoleType=Round|Shape=RoundedRectangle|*
%AMROUNDEDRECTD89*
21,1,1.253,0.410,0,0,0.0*
21,1,0.000,1.663,0,0,0.0*
1,1,1.253,0.000,-0.205*
1,1,1.253,0.000,-0.205*
1,1,1.253,0.000,0.205*
1,1,1.253,0.000,0.205*
%
%ADD89ROUNDEDRECTD89*%
%TA.AperFunction,ViaPad*%
%ADD90C,5.203*%
%TA.AperFunction,ComponentPad*%
%ADD91R,1.981X1.981*%
%ADD92C,1.203*%
G36*
X67938Y67526D02*
X67951Y67523D01*
X67964Y67519D01*
X67976Y67513D01*
X67987Y67506D01*
X67997Y67497D01*
X68006Y67487D01*
X68013Y67476D01*
X68019Y67464D01*
X68023Y67451D01*
X68026Y67438D01*
X68027Y67425D01*
Y64275D01*
X68026Y64262D01*
X68023Y64249D01*
X68019Y64236D01*
X68013Y64224D01*
X68006Y64213D01*
X67997Y64203D01*
X67987Y64194D01*
X67976Y64187D01*
X67964Y64181D01*
X67951Y64177D01*
X67938Y64174D01*
X67925Y64173D01*
X66100D01*
X66087Y64174D01*
X66074Y64177D01*
X66061Y64181D01*
X66049Y64187D01*
X66038Y64194D01*
X66028Y64203D01*
X66019Y64213D01*
X66012Y64224D01*
X66006Y64236D01*
X66002Y64249D01*
X65999Y64262D01*
X65998Y64275D01*
Y64975D01*
X65999Y64988D01*
X66002Y65001D01*
X66006Y65014D01*
X66012Y65026D01*
X66019Y65037D01*
X66028Y65047D01*
X66038Y65056D01*
X66049Y65063D01*
X66061Y65069D01*
X66074Y65073D01*
X66087Y65076D01*
X66100Y65077D01*
X66523D01*
Y67425D01*
X66524Y67438D01*
X66527Y67451D01*
X66531Y67464D01*
X66537Y67476D01*
X66544Y67487D01*
X66553Y67497D01*
X66563Y67506D01*
X66574Y67513D01*
X66586Y67519D01*
X66599Y67523D01*
X66612Y67526D01*
X66625Y67527D01*
X67925D01*
X67938Y67526D01*
D02*
G37*
G36*
X73388D02*
X73401Y67523D01*
X73414Y67519D01*
X73426Y67513D01*
X73437Y67506D01*
X73447Y67497D01*
X73456Y67487D01*
X73463Y67476D01*
X73469Y67464D01*
X73473Y67451D01*
X73476Y67438D01*
X73477Y67425D01*
Y65077D01*
X73900D01*
X73913Y65076D01*
X73926Y65073D01*
X73939Y65069D01*
X73951Y65063D01*
X73962Y65056D01*
X73972Y65047D01*
X73981Y65037D01*
X73988Y65026D01*
X73994Y65014D01*
X73998Y65001D01*
X74001Y64988D01*
X74002Y64975D01*
Y64275D01*
X74001Y64262D01*
X73998Y64249D01*
X73994Y64236D01*
X73988Y64224D01*
X73981Y64213D01*
X73972Y64203D01*
X73962Y64194D01*
X73951Y64187D01*
X73939Y64181D01*
X73926Y64177D01*
X73913Y64174D01*
X73900Y64173D01*
X72075D01*
X72062Y64174D01*
X72049Y64177D01*
X72036Y64181D01*
X72024Y64187D01*
X72013Y64194D01*
X72003Y64203D01*
X71994Y64213D01*
X71987Y64224D01*
X71981Y64236D01*
X71977Y64249D01*
X71974Y64262D01*
X71973Y64275D01*
Y67425D01*
X71974Y67438D01*
X71977Y67451D01*
X71981Y67464D01*
X71987Y67476D01*
X71994Y67487D01*
X72003Y67497D01*
X72013Y67506D01*
X72024Y67513D01*
X72036Y67519D01*
X72049Y67523D01*
X72062Y67526D01*
X72075Y67527D01*
X73375D01*
X73388Y67526D01*
D02*
G37*
D59*
X74362Y55800D02*
D03*
Y53300D02*
D03*
X41500Y63500D02*
D03*
Y66000D02*
D03*
X59750Y34250D02*
D03*
Y31750D02*
D03*
X53750Y34000D02*
D03*
Y31500D02*
D03*
X72250Y46500D02*
D03*
Y44000D02*
D03*
X40250Y51750D02*
D03*
Y49250D02*
D03*
X64200Y58250D02*
D03*
Y60750D02*
D03*
X66700D02*
D03*
Y58250D02*
D03*
X69750Y44000D02*
D03*
Y46500D02*
D03*
X38053Y58850D02*
D03*
Y61350D02*
D03*
X62250Y44000D02*
D03*
Y46500D02*
D03*
X59700Y44000D02*
D03*
Y46500D02*
D03*
X51500Y36500D02*
D03*
Y34000D02*
D03*
X59750Y39000D02*
D03*
Y36500D02*
D03*
X42500Y51750D02*
D03*
Y49250D02*
D03*
X38000Y54000D02*
D03*
Y56500D02*
D03*
X44750Y49250D02*
D03*
Y51750D02*
D03*
X44750Y54000D02*
D03*
Y56500D02*
D03*
X67250Y46500D02*
D03*
Y44000D02*
D03*
X31250Y56500D02*
D03*
Y54000D02*
D03*
X64750Y46500D02*
D03*
Y44000D02*
D03*
X42500Y56500D02*
D03*
Y54000D02*
D03*
X29000Y54000D02*
D03*
Y56500D02*
D03*
X33500Y54000D02*
D03*
Y56500D02*
D03*
X26750Y54000D02*
D03*
Y56500D02*
D03*
X40250Y56500D02*
D03*
Y54000D02*
D03*
X35750Y56500D02*
D03*
Y54000D02*
D03*
D60*
X69850Y52250D02*
D03*
D61*
X68350Y54650D02*
D03*
X68850D02*
D03*
X69350D02*
D03*
X69850D02*
D03*
X70350D02*
D03*
X70850D02*
D03*
X71350D02*
D03*
Y49850D02*
D03*
X70850D02*
D03*
X70350D02*
D03*
X69850D02*
D03*
X69350D02*
D03*
X68850D02*
D03*
X68350D02*
D03*
D62*
X72250Y53750D02*
D03*
Y53250D02*
D03*
Y52750D02*
D03*
Y52250D02*
D03*
Y51750D02*
D03*
Y51250D02*
D03*
Y50750D02*
D03*
X67450D02*
D03*
Y51250D02*
D03*
Y51750D02*
D03*
Y52250D02*
D03*
Y52750D02*
D03*
Y53250D02*
D03*
Y53750D02*
D03*
D63*
X36750Y63500D02*
D03*
X39250D02*
D03*
Y66000D02*
D03*
X36750D02*
D03*
X31750Y66000D02*
D03*
X34250D02*
D03*
X44250Y40250D02*
D03*
X46750D02*
D03*
X69500Y56850D02*
D03*
X72000D02*
D03*
X48900Y46400D02*
D03*
X51400D02*
D03*
X31750Y63500D02*
D03*
X34250D02*
D03*
X51400Y43900D02*
D03*
X48900D02*
D03*
X53750Y59645D02*
D03*
X56250D02*
D03*
X29250Y58750D02*
D03*
X26750D02*
D03*
X29250Y61000D02*
D03*
X26750D02*
D03*
D64*
X59700Y55100D02*
D03*
D65*
X60350D02*
D03*
X61000D02*
D03*
X61650D02*
D03*
X62300D02*
D03*
X62950D02*
D03*
X63600D02*
D03*
X64250D02*
D03*
Y49500D02*
D03*
X63600D02*
D03*
X62950D02*
D03*
X62300D02*
D03*
X61650D02*
D03*
X61000D02*
D03*
X60350D02*
D03*
X59700D02*
D03*
D66*
X57700Y34000D02*
D03*
X56750D02*
D03*
X55800D02*
D03*
Y31800D02*
D03*
X56750D02*
D03*
X57700D02*
D03*
D67*
X80750Y39250D02*
D03*
Y37850D02*
D03*
X62200Y60900D02*
D03*
Y59500D02*
D03*
D68*
X57350Y37750D02*
D03*
X53750D02*
D03*
D69*
X34350Y42525D02*
D03*
Y43175D02*
D03*
Y43825D02*
D03*
Y44475D02*
D03*
X31350D02*
D03*
Y43825D02*
D03*
Y43175D02*
D03*
Y42525D02*
D03*
D70*
X33250Y43500D02*
D03*
D71*
X68700Y61000D02*
D03*
X70100D02*
D03*
X72800D02*
D03*
X71400D02*
D03*
D72*
X69038Y66575D02*
D03*
X70962D02*
D03*
D73*
X68700Y63500D02*
D03*
X69350D02*
D03*
X70000D02*
D03*
X70650D02*
D03*
X71300D02*
D03*
D74*
X51500Y41500D02*
D03*
X49100D02*
D03*
X51450Y39000D02*
D03*
X49050D02*
D03*
X46400Y47000D02*
D03*
X44000D02*
D03*
D75*
X44500Y42600D02*
D03*
X37900Y49350D02*
D03*
D76*
X43550Y42600D02*
D03*
X42600D02*
D03*
Y44750D02*
D03*
X44500D02*
D03*
X36950Y49350D02*
D03*
X36000D02*
D03*
Y51500D02*
D03*
X37900D02*
D03*
D77*
X47500Y52000D02*
D03*
Y51000D02*
D03*
Y50500D02*
D03*
Y51500D02*
D03*
Y52500D02*
D03*
Y53000D02*
D03*
Y53500D02*
D03*
Y54000D02*
D03*
Y54500D02*
D03*
Y55000D02*
D03*
Y55500D02*
D03*
Y56000D02*
D03*
X56000Y56000D02*
D03*
Y55500D02*
D03*
Y55000D02*
D03*
Y54500D02*
D03*
Y54000D02*
D03*
Y53500D02*
D03*
Y53000D02*
D03*
Y52500D02*
D03*
X56000Y52000D02*
D03*
Y51500D02*
D03*
Y51000D02*
D03*
Y50500D02*
D03*
D78*
X49000Y57500D02*
D03*
X49500D02*
D03*
X50000D02*
D03*
X50500D02*
D03*
X51000Y57500D02*
D03*
X51500D02*
D03*
X52000D02*
D03*
X52500D02*
D03*
X53000D02*
D03*
X53500D02*
D03*
X54000D02*
D03*
X54500D02*
D03*
X54500Y49000D02*
D03*
X54000D02*
D03*
X53500D02*
D03*
X53000D02*
D03*
X52500D02*
D03*
X52000D02*
D03*
X51500D02*
D03*
X51000D02*
D03*
X50500D02*
D03*
X50000D02*
D03*
X49500D02*
D03*
X49000D02*
D03*
D79*
X46750Y44950D02*
D03*
Y42550D02*
D03*
X33500Y51700D02*
D03*
Y49300D02*
D03*
D80*
X77075Y36300D02*
D03*
X68075D02*
D03*
X77075Y40700D02*
D03*
X68075D02*
D03*
D81*
X31550Y58950D02*
D03*
D82*
Y59600D02*
D03*
Y60250D02*
D03*
Y60900D02*
D03*
X35950D02*
D03*
Y58950D02*
D03*
Y59600D02*
D03*
Y60250D02*
D03*
D83*
X72900Y63295D02*
D03*
D84*
X67100Y63295D02*
D03*
D85*
X82750Y41790D02*
D03*
Y39250D02*
D03*
X81250Y49710D02*
D03*
Y52250D02*
D03*
X78710Y49710D02*
D03*
Y52250D02*
D03*
Y54790D02*
D03*
D86*
X27940Y43180D02*
D03*
Y40640D02*
D03*
D87*
Y48260D02*
D03*
Y45720D02*
D03*
Y50800D02*
D03*
D88*
X72725Y66325D02*
D03*
X67275D02*
D03*
D89*
X72425Y63295D02*
D03*
X67575D02*
D03*
D90*
X28000Y26000D02*
D03*
X55000D02*
D03*
X82000D02*
D03*
Y65000D02*
D03*
X28000D02*
D03*
D91*
X81250Y54790D02*
D03*
D92*
X31500Y31500D02*
D03*
X34000Y36500D02*
D03*
X46500Y31500D02*
D03*
X49000Y36500D02*
D03*
X61500Y31500D02*
D03*
X64000Y36500D02*
D03*
X76500Y31500D02*
D03*
X79000Y36500D02*
D03*
%TF.MD5,45d70bacc731aeee047ab14527e57448*%
M02*
